{"success":true,"message":"Success","data":{"content":[{"id":2287,"title":"Ăn Trộm Nụ Hôn Từ Mặt Trăng","originTitle":"偷吻月亮","slug":"an-trom-nu-hon-tu-mat-trang-short-drama","thumbUrl":"https://img.ophim.live/uploads/movies/an-trom-nu-hon-tu-mat-trang-short-drama-thumb.jpg","posterUrl":"","year":2025,"description":"<p>Ôn Nhuyễn là một họa sĩ minh họa có tính cách hướng nội. Tác phẩm của cô thu hút sự chú ý của Lục Thời Dự, tổng biên tập của một nhà xuất bản nổi tiếng. Lục Thời Dự rất ngưỡng mộ tài năng của Ôn Nhuyễn và thường thảo luận về ý tưởng sáng tạo với cô. Qua những lần tiếp xúc, Ôn Nhuyễn bị thu hút bởi sự dịu dàng và quan tâm của Lục Thời Dự. Cô âm thầm giấu kín tình cảm dành cho anh, và cuối cùng cả hai đều yêu nhau, bắt đầu một chuyện tình ngọt ngào.</p>","status":"COMPLETED","type":"SERIES","viewCount":0,"totalEpisodes":0,"currentEpisode":"Hoàn Tất (74/74)","quality":"HD","language":"Vietsub","duration":"2 phút/tập","director":"","actors":"","categories":[{"id":19,"name":"Short Drama","slug":"short-drama"}],"countries":[{"id":1,"name":"Trung Quốc","slug":"trung-quoc"}],"createdAt":"2026-01-31T15:22:33.244214","updatedAt":"2026-01-31T15:22:33.244214"},{"id":2286,"title":"Hợp Đồng Hôn Nhân 999 Ngày","originTitle":"妻约999天","slug":"hop-dong-hon-nhan-999-ngay-short-drama","thumbUrl":"https://img.ophim.live/uploads/movies/hop-dong-hon-nhan-999-ngay-short-drama-thumb.jpg","posterUrl":"","year":2025,"description":"<p>Để trả nợ gia đình, Lâm Khê ký hợp đồng hôn nhân 999 ngày với ông trùm kinh doanh Cố Ngôn Thần. Ban đầu lạnh lùng với Lâm Khê, Cố Ngôn Thần dần bị chinh phục bởi lòng tốt và sự kiên cường của cô qua cuộc sống hàng ngày. Lâm Khê cũng khám phá ra sự dịu dàng của anh. Khi hợp đồng sắp hết hạn, cả hai đã yêu nhau sâu đậm, biến cuộc hôn nhân giả thành hạnh phúc thật sự.</p>","status":"COMPLETED","type":"SERIES","viewCount":0,"totalEpisodes":0,"currentEpisode":"Hoàn Tất (79/79)","quality":"HD","language":"Vietsub","duration":"2 phút/tập","director":"","actors":"","categories":[{"id":19,"name":"Short Drama","slug":"short-drama"}],"countries":[{"id":1,"name":"Trung Quốc","slug":"trung-quoc"}],"createdAt":"2026-01-31T15:22:32.609559","updatedAt":"2026-01-31T15:22:32.609559"},{"id":2285,"title":"Tuần Tuần Chạy Đến Với Em","originTitle":"周周奔赴你","slug":"tuan-tuan-chay-den-voi-em-short-drama","thumbUrl":"https://img.ophim.live/uploads/movies/tuan-tuan-chay-den-voi-em-short-drama-thumb.jpg","posterUrl":"","year":2025,"description":"<p>Khi chị gái bỏ trốn khỏi cuộc hôn nhân sắp đặt, Giang Ni thay thế và kết hôn vào gia tộc giàu có nhà Chu. Cô bắt đầu câu chuyện tình yêu sau hôn nhân với ông Chu quyền lực. Từ hôn nhân hợp đồng đến cảm xúc qua lại, tình yêu lặng lẽ nảy nở qua những khoảnh khắc hàng ngày.</p>","status":"COMPLETED","type":"SERIES","viewCount":0,"totalEpisodes":0,"currentEpisode":"Hoàn Tất (80/80)","quality":"HD","language":"Vietsub","duration":"2 phút/tập","director":"","actors":"","categories":[{"id":19,"name":"Short Drama","slug":"short-drama"}],"countries":[{"id":1,"name":"Trung Quốc","slug":"trung-quoc"}],"createdAt":"2026-01-31T15:22:31.878503","updatedAt":"2026-01-31T15:22:31.878503"},{"id":2284,"title":"Anh Dung, Tình Yêu Của Anh Không Thể Giấu Được","originTitle":"容先生，你的爱意藏不住了","slug":"anh-dung-tinh-yeu-cua-anh-khong-the-giau-duoc-short-drama","thumbUrl":"https://img.ophim.live/uploads/movies/anh-dung,-tinh-yeu-cua-anh-khong-the-giau-duoc-short-drama-thumb.jpg","posterUrl":"","year":2025,"description":"<p>Nguyễn Chi vô tình có một đêm vướng víu với Dung Quân Hành. Lúc đó, cô đang đau khổ vì phát hiện bạn trai ngoại tình với bạn thân. Trong tuyệt vọng, cô tức giận đồng ý kết hôn hợp đồng với Dung Quân Hành. Sau khi kết hôn, Dung Quân Hành tuy có vẻ lạnh lùng nhưng thường thể hiện tình cảm sâu sắc qua những điều nhỏ nhặt - mang cháo nóng khi cô làm việc khuya và bí mật giúp cô giải quyết khó khăn trong công việc. Những quan tâm nhỏ này dần phá vỡ hàng rào trái tim Nguyễn Chi như dòng suối nhỏ, cuộc hôn nhân ban đầu chỉ vì lợi ích dần nảy sinh tình yêu ngọt ngào.</p>","status":"COMPLETED","type":"SERIES","viewCount":0,"totalEpisodes":0,"currentEpisode":"Hoàn Tất (75/75)","quality":"HD","language":"Vietsub","duration":"2 phút/tập","director":"","actors":"","categories":[{"id":19,"name":"Short Drama","slug":"short-drama"}],"countries":[{"id":1,"name":"Trung Quốc","slug":"trung-quoc"}],"createdAt":"2026-01-31T15:22:31.330197","updatedAt":"2026-01-31T15:22:31.330197"},{"id":2283,"title":"Thống Đốc Ơi, Tiểu Phúc Bảo Nhà Ngài Di Truyền Miệng Quạ","originTitle":"督军，你家小福包有祖传乌鸦嘴","slug":"thong-doc-oi-tieu-phuc-bao-nha-ngai-di-truyen-mieng-qua-short-drama","thumbUrl":"https://img.ophim.live/uploads/movies/thong-doc-oi,-tieu-phuc-bao-nha-ngai-di-truyen-mieng-qua-short-drama-thumb.jpg","posterUrl":"","year":2025,"description":"<p>Nha Nha bị dân làng coi là điềm xui vì những lời tiên đoán chính xác, nhưng thực ra cô có thể chất may mắn. Khi đang mặc quần áo rách rưới đi đào rau dại, cô tình cờ gặp vợ của vị thống đốc đang bị lạc đường!</p>","status":"COMPLETED","type":"SERIES","viewCount":0,"totalEpisodes":0,"currentEpisode":"Hoàn Tất (70/70)","quality":"HD","language":"Vietsub","duration":"2 phút/tập","director":"","actors":"","categories":[{"id":19,"name":"Short Drama","slug":"short-drama"}],"countries":[{"id":1,"name":"Trung Quốc","slug":"trung-quoc"}],"createdAt":"2026-01-31T15:22:30.746866","updatedAt":"2026-01-31T15:22:30.746866"}],"empty":false,"first":true,"last":false,"number":0,"numberOfElements":5,"pageable":{"offset":0,"pageNumber":0,"pageSize":5,"paged":true,"sort":{"empty":true,"sorted":false,"unsorted":true},"unpaged":false},"size":5,"sort":{"empty":true,"sorted":false,"unsorted":true},"totalElements":2287,"totalPages":458},"timestamp":"2026-01-31T17:00:56.0722532","pagination":{"currentPage":0,"totalPages":458,"totalItems":2287,"itemsPerPage":5}}