{"success":true,"message":"Success","data":{"content":[{"id":2227,"title":"Thần Y Hoa Đà","originTitle":"Incurable Traits","slug":"than-y-hoa-da","thumbUrl":"https://img.ophim.live/uploads/movies/than-y-hoa-da-thumb.jpg","posterUrl":"https://img.ophim.live/uploads/movies/than-y-hoa-da-poster.jpg","year":2000,"description":"<p>Hoa Đà (Lâm Văn Long) từ nhỏ đã thông minh tuyệt đỉnh, mê y thuật. Gặp được danh y Trương Trọng Cảnh, chàng liền tôn thờ làm thầy. Có lần, Quan Vân Trường (Âm Dương Minh) dẫn một người cùng quê đi chữa bệnh. Đồ phát hiện bệnh của người này khác thường, không phải bệnh thương hàn thông thường, bèn kết hợp \"Bệnh sốt rét luận\" với \"Âm dưỡng lý\" và thành công chế ra thuốc chữa bệnh dịch hạch. Đáng tiếc là dân chúng mê tín dị đoan với quỷ thần, thành công của kẻ thủ ác đã gây hại không nhỏ cho Đồ, khiến nàng bị sát hại. Trương Diệu Tâm (Ngô Vĩnh Vệ), con gái lớn của Trọng Cảnh, đem lòng yêu Đồ và quyết tâm cùng chồng bỏ trốn.</p>","status":"COMPLETED","type":"SERIES","viewCount":0,"totalEpisodes":0,"currentEpisode":"Hoàn Tất (20/20)","quality":"HD","language":"Lồng Tiếng","duration":"45 phút/tập","director":"","actors":"林文龍, 黃日華, 伍詠薇, 梁詠琳, 尹揚明, 王偉, Helen Poon Bing-Seung, 江欣燕, 任港秀, 譚一清","categories":[{"id":6,"name":"Chính kịch","slug":"chinh-kich"}],"countries":[{"id":2,"name":"Hồng Kông","slug":"hong-kong"},{"id":1,"name":"Trung Quốc","slug":"trung-quoc"}],"createdAt":"2026-01-31T15:22:01.317268","updatedAt":"2026-01-31T15:22:01.317268"},{"id":2228,"title":"Nhật Nguyệt Tranh Hùng – Thiên Lang Kiếp","originTitle":"Leo And Sirius","slug":"nhat-nguyet-tranh-hung-thien-lang-kiep","thumbUrl":"https://img.ophim.live/uploads/movies/nhat-nguyet-tranh-hung-thien-lang-kiep-thumb.jpg","posterUrl":"https://img.ophim.live/uploads/movies/nhat-nguyet-tranh-hung-thien-lang-kiep-poster.jpg","year":1988,"description":"<p>Bộ phim kể về câu chuyện đã tồn tại trong dân gian nhiều năm, đó là mỗi khi trên bầu trời xuất hiện ngôi sao Lang Ma thì trong dân gian Lang Ma xuất hiện và hoành hành khắp nơi. Lúc này Bảo Diệp Linh Tiêu nhìn thấy sao Lang Ma xuất hiện và sau khi điều tra, ông cho rằng người tên là Hà Triển Bang chính là loài ma quái nên cùng nghĩa sĩ giang hồ đuổi cùng diệt tận buộc ông phải xuống vực núi cao để tránh bị loạn đao phân thây. Ông để lại một đứa con gái tên là Hà Chí Thanh, cô gái được nuôi dưỡng tại Quỹ Mạt Cốc bởi một đôi thần y phu phụ. Nhưng Bạch Thiên Hành lại quan sát những vì sao, vì am hiểu tinh tú nên ông biết Lang Ma không phải là Hà Triển Bang, ông định điều tra ngọn ngành thì bất ngờ bị truy sát, chỉ kịp mang theo đứa con trai còn bé bỏng tên là Long trốn chạy. 16 năm sau Long đã thành một thanh niên, anh lên đường truy tìm Lang Ma thật sự cùng với hậu nhân của những người trong cuộc năm xưa.</p>","status":"COMPLETED","type":"SERIES","viewCount":0,"totalEpisodes":0,"currentEpisode":"Hoàn Tất (20/20)","quality":"HD","language":"Lồng Tiếng","duration":"45 phút/tập","director":"","actors":"劉德華, 邵美琪, 黎漢持, Chu Tit-Wo, 羅蘭, 劉丹, Amy Wu Mei-Yee, 許紹雄","categories":[{"id":6,"name":"Chính kịch","slug":"chinh-kich"}],"countries":[{"id":2,"name":"Hồng Kông","slug":"hong-kong"},{"id":1,"name":"Trung Quốc","slug":"trung-quoc"}],"createdAt":"2026-01-31T15:22:01.71745","updatedAt":"2026-01-31T15:22:01.71745"},{"id":2229,"title":"Đối Mặt","originTitle":"Face to Face","slug":"doi-mat-1999","thumbUrl":"https://img.ophim.live/uploads/movies/doi-mat-1999-thumb.jpg","posterUrl":"https://img.ophim.live/uploads/movies/doi-mat-1999-poster.jpg","year":1999,"description":"<p>Bằng cách đưa những vụ án bất công vào xuyên suốt bộ phim, Face to Face đã khai thác cực kỳ hiệu quả căn bệnh \"đa nhân cách\" mà nhiều người trên thế giới đang mắc phải, mang đến cho người xem một cuộc sống hoàn toàn mới.</p>","status":"COMPLETED","type":"SERIES","viewCount":0,"totalEpisodes":0,"currentEpisode":"Hoàn Tất (20/20)","quality":"HD","language":"Lồng Tiếng","duration":"45 phút/tập","director":"","actors":"鄭伊健, 袁潔瑩, 曹永廉, 謝天華, 徐濠縈, 林曉峰, 歐倩怡, 鍾麗淇, 劉江, 羅樂林","categories":[{"id":18,"name":"Tâm Lý","slug":"tam-ly"}],"countries":[{"id":2,"name":"Hồng Kông","slug":"hong-kong"},{"id":1,"name":"Trung Quốc","slug":"trung-quoc"}],"createdAt":"2026-01-31T15:22:02.080632","updatedAt":"2026-01-31T15:22:02.080632"},{"id":2230,"title":"Đời Ca Nữ","originTitle":"Song Bird","slug":"doi-ca-nu","thumbUrl":"https://img.ophim.live/uploads/movies/doi-ca-nu-thumb.jpg","posterUrl":"https://img.ophim.live/uploads/movies/doi-ca-nu-poster.jpg","year":1989,"description":"<p>Song Bird là một bộ phim truyền hình cổ trang do TVB sản xuất và phát sóng tại Hồng Kông vào năm 1989. Câu chuyện dựa trên cuộc đời của ca sĩ nhạc sĩ thời đại Chu Huyền. Tên tiếng Trung của bộ phim bắt nguồn từ tên một bài hát được sử dụng trong bộ phim Street Angel năm 1937.</p>","status":"COMPLETED","type":"SERIES","viewCount":0,"totalEpisodes":0,"currentEpisode":"Hoàn Tất (20/20)","quality":"HD","language":"Lồng Tiếng","duration":"44 phút/tập","director":"","actors":"黎明, 陳松伶, 關禮傑, 戴志偉, 譚炳文, Katherine Lau Ying-Hung, 林利, 駱應鈞, 王維德, 馬海倫","categories":[{"id":6,"name":"Chính kịch","slug":"chinh-kich"}],"countries":[{"id":2,"name":"Hồng Kông","slug":"hong-kong"},{"id":1,"name":"Trung Quốc","slug":"trung-quoc"}],"createdAt":"2026-01-31T15:22:02.460667","updatedAt":"2026-01-31T15:22:02.460667"},{"id":2231,"title":"Câu Chuyện Huyền Ảo","originTitle":"The Zone","slug":"cau-chuyen-huyen-ao","thumbUrl":"https://img.ophim.live/uploads/movies/cau-chuyen-huyen-ao-thumb.jpg","posterUrl":"https://img.ophim.live/uploads/movies/cau-chuyen-huyen-ao-poster.jpg","year":2005,"description":"<p>Nội dung xoay quanh những nhân tố kỳ ảo xảy ra trong đời thường và được người dân truyền tai nhau. Một nhóm thanh niên kết bạn qua mạng để cùng chơi mạt chược, nào ngờ thua bằng chính sinh mạng của mình. Một sinh viên vô tình liên hệ được với “phòng trò chuyện tương lai”, rốt cuộc lại không còn đường trở về. Một cô gái vạ miệng, ước rằng mình có một khuôn mặt giống người trên bia mộ, cuối cùng hối hận không kịp. Một cậu học trò cấp hai đột nhiên phát hiện loại nước thần kỳ, có thể mang người trong ảnh ra thế giới hiện thực. Một nữ minh tinh sau tai nạn, bỗng có khả năng nhìn thấu chân tướng của người khác. Một tờ giấy mang tên “Huy Xuân”, nếu ai viết lời cầu nguyện lên đó, mọi chuyện sẽ thành sự thật...</p>","status":"COMPLETED","type":"SERIES","viewCount":0,"totalEpisodes":11,"currentEpisode":"Hoàn Tất (11/11)","quality":"HD","language":"Lồng Tiếng","duration":"45 phút/tập","director":"","actors":"鄭伊健, 羅敏莊","categories":[{"id":6,"name":"Chính kịch","slug":"chinh-kich"}],"countries":[{"id":2,"name":"Hồng Kông","slug":"hong-kong"},{"id":1,"name":"Trung Quốc","slug":"trung-quoc"}],"createdAt":"2026-01-31T15:22:02.77575","updatedAt":"2026-01-31T15:22:02.77575"}],"empty":false,"first":true,"last":false,"number":0,"numberOfElements":5,"pageable":{"offset":0,"pageNumber":0,"pageSize":5,"paged":true,"sort":{"empty":true,"sorted":false,"unsorted":true},"unpaged":false},"size":5,"sort":{"empty":true,"sorted":false,"unsorted":true},"totalElements":2287,"totalPages":458},"timestamp":"2026-01-31T17:01:02.6214989","pagination":{"currentPage":0,"totalPages":458,"totalItems":2287,"itemsPerPage":5}}