{"success":true,"message":"Success","data":{"content":[{"id":1,"title":"Thẩm Phán Trùng Sinh","originTitle":"The Judge Returns","slug":"tham-phan-trung-sinh","thumbUrl":"https://phim.nguonc.com/public/images/Post/10/tham-phan-trung-sinh.jpg","posterUrl":"https://phim.nguonc.com/public/images/Post/10/tham-phan-trung-sinh-1.jpg","year":0,"description":"Lee Han Young (Ji Sung) – một thẩm phán từng lún sâu vào tham nhũng để rồi bị hãm hại bởi chính những người anh từng phục vụ. Trong khoảnh khắc đối mặt với cái chết, một sự kiện siêu nhiên đã xảy ra, đưa linh hồn anh trở về thời điểm 10 năm trước, khi anh vẫn còn là một tân binh trong ngành tư pháp. Được trao cơ hội thứ hai, anh quyết tâm tìm lại công lý bằng cách trừng phạt cái ác.","status":"ONGOING","type":"SINGLE","viewCount":0,"totalEpisodes":14,"currentEpisode":"Tập 9","quality":"HD","language":"Vietsub","duration":"70 phút/tập","director":"Lee Jae Jin","actors":"Baek Jin Hee, Ji Sung, Oh Se Young, Park Hee Soon, Tae Won Seok, Won Jin A","categories":[],"countries":[],"createdAt":"2026-01-31T14:54:32.512529","updatedAt":"2026-01-31T15:04:16.758649"}],"page":{"size":1,"number":0,"totalElements":658,"totalPages":658}},"timestamp":"2026-01-31T18:05:19.2859745","pagination":{"currentPage":0,"totalPages":658,"totalItems":658,"itemsPerPage":1}}