{"success":true,"message":"Success","data":{"content":[{"id":11,"title":"Xà Thần Lấy Vợ","originTitle":"The Long Snake Takes a Wife","slug":"xa-than-lay-vo","thumbUrl":"https://img.ophim.live/uploads/movies/xa-than-lay-vo-thumb.jpg","posterUrl":"https://img.ophim.live/uploads/movies/xa-than-lay-vo-poster.jpg","year":2026,"description":"<p>Mẹ của Bạch Trung Thiên năm xưa gặp nạn một cách ly kỳ. Dân làng đều đồn đoán, nói bà đã bị Trường Tiên bắt đi. Nhiều năm sau, Bạch Trung Thiên một lần nữa quay trở lại trấn Bạch Vân. Những truyền thuyết quái dị như Trường Tiên cưới vợ, cắt giấy gọi hồn, gánh hát ma, hay chiếc ô giấy đỏ đã phủ lên trấn Bạch Vân một tấm màn huyền bí. Có dân làng trong lúc đi đốn củi lại tình cờ nhìn thấy Trường Tiên rước dâu. Bạch Trung Thiên quyết tâm lần theo manh mối, phơi bày sự thật ra ánh sáng.</p>","status":"ONGOING","type":"SERIES","viewCount":6,"totalEpisodes":0,"currentEpisode":"Tập 21","quality":"HD","language":"Vietsub","duration":"? phút/tập","director":"Li Zhiwen","actors":"程宇峰, Chen Yeling, 林柒予, Zhang Bingqian, 王晔, 成超越, 蔡明娜","categories":[{"id":1,"name":"Bí ẩn","slug":"bi-an"}],"countries":[{"id":1,"name":"Trung Quốc","slug":"trung-quoc"}],"createdAt":"2026-01-31T14:54:34.126644","updatedAt":"2026-01-31T17:50:57.339214"}],"page":{"size":1,"number":0,"totalElements":1406,"totalPages":1406}},"timestamp":"2026-01-31T18:02:45.4506728","pagination":{"currentPage":0,"totalPages":1406,"totalItems":1406,"itemsPerPage":1}}